{
  "_class": "group",
  "do_objectID": "D9FB4E91-3D2C-499C-92F9-FBB96807D955",
  "exportOptions": {
    "_class": "exportOptions",
    "exportFormats": [
    ],
    "includedLayerIds": [
    ],
    "layerOptions": 0,
    "shouldTrim": false
  },
  "frame": {
    "_class": "rect",
    "constrainProportions": false,
    "height": 68,
    "width": 1280,
    "x": 0,
    "y": 0
  },
  "hasClickThrough": false,
  "isFlippedHorizontal": false,
  "isFlippedVertical": false,
  "isLocked": false,
  "isVisible": true,
  "layerListExpandedType": 2,
  "layers": [
    {
      "class": "shapeGroup",
      "id": "AD57E727-831B-428A-90F9-6BBD5D962EB7"
    },
    {
      "class": "group",
      "id": "5C650F8A-8E1E-4962-897C-D56A3C2B0821"
    },
    {
      "class": "symbolInstance",
      "id": "A778FD5B-8A2E-45C5-B18A-337B4D6D2C03"
    },
    {
      "class": "symbolInstance",
      "id": "768459F2-0BB8-4074-9249-3F263F500ABC"
    }
  ],
  "name": "Group 2 + left + left copy Mask",
  "nameIsFixed": false,
  "resizingConstraint": 63,
  "resizingType": 0,
  "rotation": 0,
  "shouldBreakMaskChain": false,
  "style": {
    "_class": "style",
    "endDecorationType": 0,
    "miterLimit": 10,
    "startDecorationType": 0
  }
}