<?xml version="1.0" encoding="UTF-8"?>
<svg width="16px" height="16px" viewBox="0 0 16 16" version="1.1" xmlns="http://www.w3.org/2000/svg" xmlns:xlink="http://www.w3.org/1999/xlink">
    <!-- Generator: Sketch 63.1 (92452) - https://sketch.com -->
    <title>icn/issues</title>
    <desc>Created with Sketch.</desc>
    <g id="icn/issues" stroke="none" stroke-width="1" fill="none" fill-rule="evenodd">
        <path d="M1,3 C1,1.89543 1.89543,1 3,1 L9,1 C9.96059,1 10.763,1.6772 10.9559,2.58023 L13.9947,4.33469 C14.9513,4.88698 15.279,6.11016 14.7267,7.06674 C13.4456,9.28574 11,13.5146 10.8452,13.7866 C10.457,14.4688 9.81319,15 9,15 L3,15 C1.89543,15 1,14.1046 1,13 L1,3 Z M3,3 L9,3 L9,13 L3,13 L3,3 Z M11,9.52164 L12.9947,6.06674 L11,4.91511 L11,9.52164 Z" id="icon" fill="#000000"></path>
    </g>
</svg>