{
  "_class": "group",
  "do_objectID": "04229E9C-A954-410E-9A88-8D3C29B154F7",
  "exportOptions": {
    "_class": "exportOptions",
    "exportFormats": [
    ],
    "includedLayerIds": [
    ],
    "layerOptions": 0,
    "shouldTrim": false
  },
  "frame": {
    "_class": "rect",
    "constrainProportions": false,
    "height": 28,
    "width": 96,
    "x": 0.5,
    "y": 0
  },
  "hasClickThrough": false,
  "isFlippedHorizontal": false,
  "isFlippedVertical": false,
  "isLocked": false,
  "isVisible": false,
  "layerListExpandedType": 0,
  "layers": [
    {
      "class": "shapeGroup",
      "id": "62BA1686-D5C9-4238-B954-7BE39E06B6A6"
    },
    {
      "class": "shapeGroup",
      "id": "CB0C0F4C-1BDF-422C-B190-D6E65F7CAC9A"
    },
    {
      "class": "text",
      "id": "71B3F7A6-EF19-473C-9E9C-44C9B77EC61E"
    }
  ],
  "name": "global-components/tooltips/top",
  "nameIsFixed": false,
  "resizingConstraint": 63,
  "resizingType": 0,
  "rotation": 0,
  "shouldBreakMaskChain": false,
  "style": {
    "_class": "style",
    "endDecorationType": 0,
    "miterLimit": 10,
    "startDecorationType": 0
  }
}