{
  "_class": "group",
  "do_objectID": "A5EF2818-A115-41AF-BB5B-E57EADC3DA75",
  "exportOptions": {
    "_class": "exportOptions",
    "exportFormats": [
    ],
    "includedLayerIds": [
    ],
    "layerOptions": 0,
    "shouldTrim": false
  },
  "frame": {
    "_class": "rect",
    "constrainProportions": false,
    "height": 24,
    "width": 527,
    "x": 607,
    "y": 526
  },
  "hasClickThrough": false,
  "isFlippedHorizontal": false,
  "isFlippedVertical": false,
  "isLocked": false,
  "isVisible": true,
  "layerListExpandedType": 0,
  "layers": [
    {
      "class": "shapeGroup",
      "id": "7219919A-8ED7-4357-AAC6-1777643C2646"
    },
    {
      "class": "shapeGroup",
      "id": "4451AE8D-CC17-4FFF-B216-CB11C273A873"
    },
    {
      "class": "shapeGroup",
      "id": "019F9F6A-71F9-4E02-B25B-697BE63A1CF3"
    },
    {
      "class": "text",
      "id": "3BE62C9A-A362-498C-8DE5-B4130AC884A2"
    }
  ],
  "name": "new_epic copy 27",
  "nameIsFixed": true,
  "resizingConstraint": 63,
  "resizingType": 0,
  "rotation": 0,
  "shouldBreakMaskChain": false,
  "style": {
    "_class": "style",
    "endDecorationType": 0,
    "miterLimit": 10,
    "shadows": [
      {
        "_class": "shadow",
        "blurRadius": 2,
        "color": {
          "_class": "color",
          "alpha": 0.5,
          "blue": 0.7294117647058823,
          "green": 0.7294117647058823,
          "red": 0.7294117647058823
        },
        "contextSettings": {
          "_class": "graphicsContextSettings",
          "blendMode": 0,
          "opacity": 1
        },
        "isEnabled": true,
        "offsetX": 0,
        "offsetY": 1,
        "spread": 0
      }
    ],
    "startDecorationType": 0
  }
}