{
  "_class": "group",
  "do_objectID": "EA47A494-DE51-48F6-A819-0CA766A3909E",
  "exportOptions": {
    "_class": "exportOptions",
    "exportFormats": [
    ],
    "includedLayerIds": [
    ],
    "layerOptions": 0,
    "shouldTrim": false
  },
  "frame": {
    "_class": "rect",
    "constrainProportions": false,
    "height": 32,
    "width": 32,
    "x": 67,
    "y": 0
  },
  "hasClickThrough": false,
  "isFlippedHorizontal": false,
  "isFlippedVertical": false,
  "isLocked": false,
  "isVisible": true,
  "layerListExpandedType": 2,
  "layers": [
    {
      "class": "shapeGroup",
      "id": "9D9E6053-DEE3-4332-8043-7FB1078BEAEF"
    },
    {
      "class": "symbolInstance",
      "id": "11D79825-017D-496A-90EE-E40CC624957B"
    }
  ],
  "name": "Group",
  "nameIsFixed": false,
  "resizingConstraint": 28,
  "resizingType": 0,
  "rotation": 0,
  "shouldBreakMaskChain": false,
  "style": {
    "_class": "style",
    "endDecorationType": 0,
    "miterLimit": 10,
    "startDecorationType": 0
  }
}