{
  "_class": "shapeGroup",
  "clippingMaskMode": 0,
  "do_objectID": "AFFF8400-8299-4138-A5D4-3368114F245A",
  "exportOptions": {
    "_class": "exportOptions",
    "exportFormats": [
    ],
    "includedLayerIds": [
    ],
    "layerOptions": 0,
    "shouldTrim": false
  },
  "frame": {
    "_class": "rect",
    "constrainProportions": false,
    "height": 32,
    "width": 32,
    "x": 0,
    "y": 0
  },
  "hasClickThrough": false,
  "hasClippingMask": false,
  "isFlippedHorizontal": false,
  "isFlippedVertical": false,
  "isLocked": false,
  "isVisible": true,
  "layerListExpandedType": 1,
  "layers": [
    {
      "class": "rectangle",
      "id": "0EEBFF67-0F28-46CC-A828-45806A12184A"
    }
  ],
  "name": "themes/indigo/$indigo-300 :: 4B4BA3",
  "nameIsFixed": true,
  "resizingConstraint": 63,
  "resizingType": 0,
  "rotation": 0,
  "shouldBreakMaskChain": false,
  "style": {
    "sharedObjectID": "36EC6EBC-5EA7-46B2-93A6-A837198B1C9B"
  },
  "windingRule": 1
}