{
  "_class": "shapePath",
  "booleanOperation": -1,
  "do_objectID": "11407475-6574-4F4C-BF33-C783BFBF5365",
  "edited": true,
  "exportOptions": {
    "_class": "exportOptions",
    "exportFormats": [
    ],
    "includedLayerIds": [
    ],
    "layerOptions": 0,
    "shouldTrim": false
  },
  "frame": {
    "_class": "rect",
    "constrainProportions": false,
    "height": 16,
    "width": 10,
    "x": 0,
    "y": 0
  },
  "isFlippedHorizontal": false,
  "isFlippedVertical": false,
  "isLocked": false,
  "isVisible": true,
  "layerListExpandedType": 0,
  "name": "Path",
  "nameIsFixed": false,
  "path": {
    "_class": "path",
    "isClosed": true,
    "pointRadiusBehaviour": 1,
    "points": [
      {
        "_class": "curvePoint",
        "cornerRadius": 0,
        "curveFrom": "{0.29999999999999999, 0}",
        "curveMode": 4,
        "curveTo": "{0.13431457505076189, 1.9022449249636254e-17}",
        "hasCurveFrom": false,
        "hasCurveTo": true,
        "point": "{0.29999999999999999, 0}"
      },
      {
        "_class": "curvePoint",
        "cornerRadius": 0,
        "curveFrom": "{0.86568542494923795, 6.3408164165454178e-18}",
        "curveMode": 4,
        "curveTo": "{0.69999999999999996, 0}",
        "hasCurveFrom": true,
        "hasCurveTo": false,
        "point": "{0.69999999999999996, 0}"
      },
      {
        "_class": "curvePoint",
        "cornerRadius": 0,
        "curveFrom": "{1, 0.1875}",
        "curveMode": 4,
        "curveTo": "{1, 0.083946609406726228}",
        "hasCurveFrom": false,
        "hasCurveTo": true,
        "point": "{1, 0.1875}"
      },
      {
        "_class": "curvePoint",
        "cornerRadius": 0,
        "curveFrom": "{1, 0.91605339059327373}",
        "curveMode": 4,
        "curveTo": "{1, 0.8125}",
        "hasCurveFrom": true,
        "hasCurveTo": false,
        "point": "{1, 0.8125}"
      },
      {
        "_class": "curvePoint",
        "cornerRadius": 0,
        "curveFrom": "{0.69999999999999996, 1}",
        "curveMode": 4,
        "curveTo": "{0.86568542494923795, 1}",
        "hasCurveFrom": false,
        "hasCurveTo": true,
        "point": "{0.69999999999999996, 1}"
      },
      {
        "_class": "curvePoint",
        "cornerRadius": 0,
        "curveFrom": "{0.13431457505076197, 1}",
        "curveMode": 4,
        "curveTo": "{0.29999999999999999, 1}",
        "hasCurveFrom": true,
        "hasCurveTo": false,
        "point": "{0.29999999999999999, 1}"
      },
      {
        "_class": "curvePoint",
        "cornerRadius": 0,
        "curveFrom": "{0, 0.8125}",
        "curveMode": 4,
        "curveTo": "{2.0290612532945336e-17, 0.91605339059327373}",
        "hasCurveFrom": false,
        "hasCurveTo": true,
        "point": "{0, 0.8125}"
      },
      {
        "_class": "curvePoint",
        "cornerRadius": 0,
        "curveFrom": "{-2.0290612532945336e-17, 0.083946609406726269}",
        "curveMode": 4,
        "curveTo": "{0, 0.1875}",
        "hasCurveFrom": true,
        "hasCurveTo": false,
        "point": "{0, 0.1875}"
      }
    ]
  },
  "resizingConstraint": 63,
  "resizingType": 0,
  "rotation": 0,
  "shouldBreakMaskChain": false
}